Suite/Test/Step Name,Browser,Description,Tag,Start time,End time,Duration,Status
Feature Notification,,,,2023-06-05 07:52:22,2023-06-05 07:56:23,4m - 1.093s,PASSED
,,,,,,,
Test Cases/Step Definition/Page_Home/Feature Notification/NP001 - User want to see the list of notification,,,,2023-06-05 07:53:06,2023-06-05 07:55:03,1m - 56.646s,PASSED
Start listener action : beforeTestCase,,,,2023-06-05 07:53:06,2023-06-05 07:53:32,25.854s,PASSED
"callTestCase(findTestCase(""Test Cases/Step Definition/Page_Login/Feature Login/LGI001 - User want to login using correct credential""), [:], STOP_ON_FAILURE)",,,,2023-06-05 07:53:36,2023-06-05 07:54:55,1m - 19.011s,PASSED
"callTestCase(findTestCase(""Test Cases/Pages/Page_Home/After Login/Tap button notification""), [:], STOP_ON_FAILURE)",,,,2023-06-05 07:54:55,2023-06-05 07:55:00,5.001s,PASSED
Start listener action : afterTestCase,,,,2023-06-05 07:55:00,2023-06-05 07:55:03,3.127s,PASSED
,,,,,,,
Test Cases/Step Definition/Page_Home/Feature Notification/NP002 - User want to see notification without login,,,,2023-06-05 07:55:03,2023-06-05 07:56:23,1m - 19.909s,PASSED
Start listener action : beforeTestCase,,,,2023-06-05 07:55:03,2023-06-05 07:55:32,29.636s,PASSED
"startApplication(AppPath, true)",,,,2023-06-05 07:55:36,2023-06-05 07:56:03,27.763s,PASSED
"callTestCase(findTestCase(""Test Cases/Pages/Page_Home/Before Login/Tap Button Notification""), [:], STOP_ON_FAILURE)",,,,2023-06-05 07:56:03,2023-06-05 07:56:14,10.592s,PASSED
"callTestCase(findTestCase(""Test Cases/Pages/Page_Home/Before Login/Verify Element Login Notification""), [:], STOP_ON_FAILURE)",,,,2023-06-05 07:56:14,2023-06-05 07:56:20,6.025s,PASSED
Start listener action : afterTestCase,,,,2023-06-05 07:56:20,2023-06-05 07:56:23,2.626s,PASSED
